{
  "particles": {
    "number": {
      "value": 70,
      "density": {
        "enable": true,
        "value_area": 800
      }
    },
    "color": {
      "value": "#eeeeee"
    },
    "shape": {
      "type": ["circle", "edge", "triangle", "polygon", "image"],
      "stroke": {
        "width": 0,
        "color": "#000000"
      },
      "polygon": {
        "nb_sides": 5
      },
      "image": {
        "src": "assets/docker.svg",
        "width": 25,
        "height": 25
      }
    },
    "opacity": {
      "value": 0.7,
      "random": true,
      "anim": {
        "enable": true,
        "speed": 1,
        "opacity_min": 0.5,
        "sync": false
      }
    },
    "size": {
      "value": 10,
      "random": true,
      "anim": {
        "enable": true,
        "speed": 5,
        "size_min": 4,
        "sync": false
      }
    },
    "line_linked": {
      "enable": true,
      "distance": 150,
      "color": "#eeeeee",
      "opacity": 0.5,
      "width": 1
    },
    "move": {
      "enable": true,
      "speed": 7,
      "direction": "none",
      "random": true,
      "straight": false,
      "out_mode": "bounce",
      "bounce": false,
      "attract": {
        "enable": true,
        "rotateX": 600,
        "rotateY": 1200
      }
    }
  },
  "interactivity": {
    "detect_on": "canvas",
    "events": {
      "onhover": {
        "enable": true,
        "mode": "repulse"
      },
      "onclick": {
        "enable": true,
        "mode": "push"
      },
      "resize": true
    },
    "modes": {
      "grab": {
        "distance": 400,
        "line_linked": {
          "opacity": 1
        }
      },
      "bubble": {
        "distance": 400,
        "size": 40,
        "duration": 2,
        "opacity": 8,
        "speed": 3
      },
      "repulse": {
        "distance": 200,
        "duration": 0.4
      },
      "push": {
        "particles_nb": 4
      },
      "remove": {
        "particles_nb": 2
      }
    }
  },
  "retina_detect": true
}